%YAML 1.1
%TAG !u! tag:unity3d.com,2011:
--- !u!114 &11400000
MonoBehaviour:
  m_ObjectHideFlags: 0
  m_CorrespondingSourceObject: {fileID: 0}
  m_PrefabInstance: {fileID: 0}
  m_PrefabAsset: {fileID: 0}
  m_GameObject: {fileID: 0}
  m_Enabled: 1
  m_EditorHideFlags: 0
  m_Script: {fileID: 11500000, guid: 1f18fec9b55c4f818e284af454161962, type: 3}
  m_Name: New MixedRealitySpeechCommandsProfile
  m_EditorClassIdentifier: 
  isCustomProfile: 1
  startBehavior: 0
  recognitionConfidenceLevel: 2
  speechCommands:
  - localizationKey: 
    keyword: Menu
    keyCode: 51
    action:
      id: 2
      description: Menu
      axisConstraint: 2
  - localizationKey: 
    keyword: Select
    keyCode: 49
    action:
      id: 1
      description: Select
      axisConstraint: 2
  - localizationKey: 
    keyword: Toggle Diagnostics
    keyCode: 48
    action:
      id: 14
      description: Toggle Diagnostics
      axisConstraint: 0
  - localizationKey: 
    keyword: Toggle Profiler
    keyCode: 57
    action:
      id: 15
      description: Toggle Profiler
      axisConstraint: 0
  - localizationKey: 
    keyword: Recalibrate
    keyCode: 288
    action:
      id: 0
      description: Toggle Profiler
      axisConstraint: 0
  - localizationKey: 
    keyword: Set Point
    keyCode: 116
    action:
      id: 0
      description: Toggle Profiler
      axisConstraint: 0
  - localizationKey: 
    keyword: Clear All
    keyCode: 0
    action:
      id: 0
      description: Toggle Profiler
      axisConstraint: 0
  - localizationKey: 
    keyword: Clear Barriers
    keyCode: 0
    action:
      id: 0
      description: Toggle Profiler
      axisConstraint: 0
  - localizationKey: 
    keyword: Clear Points
    keyCode: 0
    action:
      id: 0
      description: Toggle Profiler
      axisConstraint: 0
  - localizationKey: 
    keyword: Lock Path
    keyCode: 121
    action:
      id: 0
      description: Toggle Profiler
      axisConstraint: 0
  - localizationKey: 
    keyword: Execute
    keyCode: 117
    action:
      id: 0
      description: Toggle Profiler
      axisConstraint: 0
  - localizationKey: 
    keyword: Terminate
    keyCode: 0
    action:
      id: 0
      description: Toggle Profiler
      axisConstraint: 0
  - localizationKey: 
    keyword: Ready State
    keyCode: 0
    action:
      id: 0
      description: Toggle Profiler
      axisConstraint: 0
  - localizationKey: 
    keyword: Preview
    keyCode: 0
    action:
      id: 0
      description: Toggle Profiler
      axisConstraint: 0
  - localizationKey: 
    keyword: Add Barrier
    keyCode: 0
    action:
      id: 0
      description: Toggle Profiler
      axisConstraint: 0
  - localizationKey: 
    keyword: Add Sphere Barrier
    keyCode: 0
    action:
      id: 0
      description: Toggle Profiler
      axisConstraint: 0
  - localizationKey: 
    keyword: Remove Barrier
    keyCode: 0
    action:
      id: 0
      description: Toggle Profiler
      axisConstraint: 0
