%YAML 1.1
%TAG !u! tag:unity3d.com,2011:
--- !u!1045 &1
EditorBuildSettings:
  m_ObjectHideFlags: 0
  serializedVersion: 2
  m_Scenes:
  - enabled: 1
    path: Assets/Scenes/Panda_Scene.unity
    guid: 9fc0d4010bbf28b4594072e72b8655ab
  - enabled: 0
    path: Assets/MRTK/Examples/Experimental/ExamplesHub/Scenes/MRTKExamplesHubMainMenu.unity
    guid: 63a00118e809c754f9c7911bb85d635f
  - enabled: 0
    path: Assets/MRTK/Examples/Demos/HandTracking/Scenes/HandInteractionExamples.unity
    guid: 3dd4a396b5225f8469b9a1eb608bfa57
  - enabled: 0
    path: Assets/MRTK/Examples/Demos/StandardShader/Scenes/ClippingExamples.unity
    guid: e532091edada3e04aa706112e8d5f310
  - enabled: 0
    path: Assets/MRTK/Examples/Demos/UX/Tooltips/Scenes/TooltipExamples.unity
    guid: de90a43947eced441b4c426e11f35f28
  - enabled: 0
    path: Assets/MRTK/Examples/Demos/StandardShader/Scenes/MaterialGallery.unity
    guid: c6b1477d31864dff836e9738518eae60
  - enabled: 0
    path: Assets/MRTK/Examples/Demos/UX/BoundingBox/Scenes/BoundingBoxExamples.unity
    guid: 9da574c0affd04d42a6b1e5db09e82b4
  - enabled: 0
    path: Assets/MRTK/Examples/Demos/UX/PressableButton/Scenes/PressableButtonExample.unity
    guid: b2d06bb8d7f107d4783a56c796c5c120
  - enabled: 0
    path: Assets/MRTK/Examples/Demos/HandTracking/Scenes/HandMenuExamples.unity
    guid: 2792ec9767804e644906ab978f2eed23
  - enabled: 0
    path: Assets/MRTK/Examples/Demos/UX/Slate/SlateExample.unity
    guid: 86e8b0c6246dbb74aa04ecd40a57d89c
  - enabled: 0
    path: Assets/MRTK/Examples/Demos/UX/Slider/Scenes/SliderExample.unity
    guid: 086aad2912678d04e968264b2398004b
  - enabled: 0
    path: Assets/MRTK/Examples/Demos/EyeTracking/Scenes/EyeTrackingDemo-02-TargetSelection.unity
    guid: 55643f7e4eceb734784192b162f565e0
  - enabled: 0
    path: Assets/MRTK/Examples/Demos/EyeTracking/Scenes/EyeTrackingDemo-03-Navigation.unity
    guid: 5df475f0bf57b1f488d59e0e16040d9a
  - enabled: 0
    path: Assets/MRTK/Examples/Demos/EyeTracking/Scenes/EyeTrackingDemo-04-TargetPositioning.unity
    guid: 91ded1f5ef2ae854ba4ac94eca7a2494
  - enabled: 0
    path: Assets/MRTK/Examples/Demos/EyeTracking/Scenes/EyeTrackingDemo-05-Visualizer.unity
    guid: 2d6c43a82f3a88c4dbdc3b5e99a68d8a
  - enabled: 0
    path: Assets/MRTK/Examples/Demos/HandTracking/Scenes/NearMenuExamples.unity
    guid: bf3eb3415bffceb41810526380c2c71c
  - enabled: 0
    path: Assets/MRTK/Examples/Demos/EyeTracking/Scenes/EyeTrackingDemo-00-RootScene.unity
    guid: 27c3fbe0128089f48994cdc6af8668fc
  - enabled: 0
    path: Assets/MRTK/Examples/Demos/EyeTracking/Scenes/EyeTrackingDemo-01-BasicSetup.unity
    guid: 3ac2cf3aa0e281340babd2053d8b7d46
  m_configObjects:
    Unity.XR.WindowsMR.Settings: {fileID: 0}
    com.unity.xr.management.loader_settings: {fileID: 11400000, guid: 5d71d441e1c92af448cf740715537a00,
      type: 2}
